[
    
    {
        "id": 22,
        "category_id": 1,
        "business_id": 1,
        "business_address_id": 1,
        "updated_at": "2018-04-18 08:49:26",
        "created_at": "2018-04-18 08:42:42",
        "business": {
        "id": 1,
        "enabled": 1,
        "name": "ELECTRONICS AB",
        "website": "https://www.test.com",
        "phone": "126543",
        "business_address_id": 1,
        "organization_number": 123456789,
        "updated_at": "2018-05-18 14:53:52",
        "created_at": "2018-04-18 08:41:29",
        "business_details": {
        "name": "ELECTRONICS AB",
        "owner": "RES RESSON",
        "description": "This is a very long and cool business description never forget that.",
        "business_address": {
        "street_name": "some new address",
        "street_number": 12,
        "zip_code": 123
        }
        }
        },
        "category": {
        "id": 2,
        "name": "shop",
        "updated_at": "2018-04-18 08:42:22",
        "created_at": "2018-04-18 08:42:22"
        },
        "address_full": {
        "id": 1,
        "county_id": 22,
        "municipality_id": 2,
        "place_id": 11,
        "zip_code": "44130",
        "street_name": "Businessvagen",
        "street_number": "14",
        "updated_at": "2018-05-18 12:59:49",
        "created_at": "2018-04-18 08:40:25",
        "municipality": {
        "id": 3,
        "cacheid": "8dcb24904409d7ed",
        "country_id": 1,
        "county_id": 19,
        "name": "jonkoping",
        "enabled": 1,
        "created_at": "2017-08-28 13:48:52",
        "updated_at": "2018-03-12 12:31:56"
        },
        "county": {
        "id": 1,
        "cacheid": "c047e55ce2e9af0e",
        "country_id": 1,
        "name": "Blekinge",
        "enabled": 1,
        "created_at": "2017-08-28 12:20:27",
        "updated_at": "2018-03-12 12:29:35"
        },
        "place": {
        "id": 9,
        "cacheid": "4e0a5d74ba197f3c",
        "country_id": 1,
        "county_id": 11,
        "municipality_id": 2,
        "name": "sjavsio",
        "city": 0,
        "enabled": 1,
        "created_at": "2017-08-28 16:13:39",
        "updated_at": "2018-03-12 12:31:12"
        }
        }
        },
        
{
    "id": 13,
    "category_id": 1,
    "business_id": 1,
    "business_address_id": 1,
    "updated_at": "2018-04-18 08:49:26",
    "created_at": "2018-04-18 08:42:42",
    "business": {
    "id": 1,
    "enabled": 1,
    "name": "NOW AB KUNGSBACKA",
    "website": "https://www.test.com",
    "phone": "126543",
    "business_address_id": 1,
    "organization_number": 123456789,
    "updated_at": "2018-05-18 14:53:52",
    "created_at": "2018-04-18 08:41:29",
    "business_details": {
    "name": "AB NOW SHOP",
    "owner": "RES RESSON",
    "description": "This is a very long and cool business description never forget that.",
    "business_address": {
    "street_name": "some new address",
    "street_number": 12,
    "zip_code": 123
    }
    }
    },
    "category": {
    "id": 3,
    "name": "shop",
    "updated_at": "2018-04-18 08:42:22",
    "created_at": "2018-04-18 08:42:22"
    },
    "address_full": {
    "id": 1,
    "county_id": 22,
    "municipality_id": 2,
    "place_id": 11,
    "zip_code": "44130",
    "street_name": "Businessvagen",
    "street_number": "14",
    "updated_at": "2018-05-18 12:59:49",
    "created_at": "2018-04-18 08:40:25",
    "municipality": {
    "id": 2,
    "cacheid": "8dcb24904409d7ed",
    "country_id": 1,
    "county_id": 19,
    "name": "kungsbacka",
    "enabled": 1,
    "created_at": "2017-08-28 13:48:52",
    "updated_at": "2018-03-12 12:31:56"
    },
    "county": {
    "id": 1,
    "cacheid": "c047e55ce2e9af0e",
    "country_id": 1,
    "name": "Blekinge",
    "enabled": 1,
    "created_at": "2017-08-28 12:20:27",
    "updated_at": "2018-03-12 12:29:35"
    },
    "place": {
    "id": 4,
    "cacheid": "4e0a5d74ba197f3c",
    "country_id": 1,
    "county_id": 11,
    "municipality_id": 2,
    "name": "asa",
    "city": 0,
    "enabled": 1,
    "created_at": "2017-08-28 16:13:39",
    "updated_at": "2018-03-12 12:31:12"
    }
    }
    },
    {
        "id": 23,
        "category_id": 1,
        "business_id": 1,
        "business_address_id": 1,
        "updated_at": "2018-04-18 08:49:26",
        "created_at": "2018-04-18 08:42:42",
        "business": {
        "id": 1,
        "enabled": 1,
        "name": "SVENSSON HOTEL",
        "website": "https://www.test.com",
        "phone": "126543",
        "business_address_id": 1,
        "organization_number": 123456789,
        "updated_at": "2018-05-18 14:53:52",
        "created_at": "2018-04-18 08:41:29",
        "business_details": {
        "name": "SVENSSON HOTEL",
        "owner": "RES RESSON",
        "description": "This is a very long and cool business description never forget that.",
        "business_address": {
        "street_name": "some new address",
        "street_number": 12,
        "zip_code": 123
        }
        }
        },
        "category": {
        "id": 1,
        "name": "hotel",
        "updated_at": "2018-04-18 08:42:22",
        "created_at": "2018-04-18 08:42:22"
        },
        "address_full": {
        "id": 1,
        "county_id": 22,
        "municipality_id": 2,
        "place_id": 11,
        "zip_code": "44130",
        "street_name": "Businessvagen",
        "street_number": "14",
        "updated_at": "2018-05-18 12:59:49",
        "created_at": "2018-04-18 08:40:25",
        "municipality": {
        "id": 3,
        "cacheid": "8dcb24904409d7ed",
        "country_id": 1,
        "county_id": 19,
        "name": "jonkoping",
        "enabled": 1,
        "created_at": "2017-08-28 13:48:52",
        "updated_at": "2018-03-12 12:31:56"
        },
        "county": {
        "id": 1,
        "cacheid": "c047e55ce2e9af0e",
        "country_id": 1,
        "name": "Blekinge",
        "enabled": 1,
        "created_at": "2017-08-28 12:20:27",
        "updated_at": "2018-03-12 12:29:35"
        },
        "place": {
        "id": 8,
        "cacheid": "4e0a5d74ba197f3c",
        "country_id": 1,
        "county_id": 11,
        "municipality_id": 2,
        "name": "inner city",
        "city": 0,
        "enabled": 1,
        "created_at": "2017-08-28 16:13:39",
        "updated_at": "2018-03-12 12:31:12"
        }
        }
        },
        
        {
            "id": 21,
            "category_id": 1,
            "business_id": 1,
            "business_address_id": 1,
            "updated_at": "2018-04-18 08:49:26",
            "created_at": "2018-04-18 08:42:42",
            "business": {
            "id": 1,
            "enabled": 1,
            "name": "PIZZERIA SVENSSON",
            "website": "https://www.test.com",
            "phone": "126543",
            "business_address_id": 1,
            "organization_number": 123456789,
            "updated_at": "2018-05-18 14:53:52",
            "created_at": "2018-04-18 08:41:29",
            "business_details": {
            "name": "PIZZERIA SVENSEON AB",
            "owner": "RES RESSON",
            "description": "This is a very long and cool business description never forget that.",
            "business_address": {
            "street_name": "some new address",
            "street_number": 12,
            "zip_code": 123
            }
            }
            },
            "category": {
            "id": 2,
            "name": "restaurant",
            "updated_at": "2018-04-18 08:42:22",
            "created_at": "2018-04-18 08:42:22"
            },
            "address_full": {
            "id": 1,
            "county_id": 22,
            "municipality_id": 2,
            "place_id": 11,
            "zip_code": "44130",
            "street_name": "Businessvagen",
            "street_number": "14",
            "updated_at": "2018-05-18 12:59:49",
            "created_at": "2018-04-18 08:40:25",
            "municipality": {
            "id": 3,
            "cacheid": "8dcb24904409d7ed",
            "country_id": 1,
            "county_id": 19,
            "name": "jonkoping",
            "enabled": 1,
            "created_at": "2017-08-28 13:48:52",
            "updated_at": "2018-03-12 12:31:56"
            },
            "county": {
            "id": 1,
            "cacheid": "c047e55ce2e9af0e",
            "country_id": 1,
            "name": "Blekinge",
            "enabled": 1,
            "created_at": "2017-08-28 12:20:27",
            "updated_at": "2018-03-12 12:29:35"
            },
            "place": {
            "id": 7,
            "cacheid": "4e0a5d74ba197f3c",
            "country_id": 1,
            "county_id": 11,
            "municipality_id": 2,
            "name": "vrigstad",
            "city": 0,
            "enabled": 1,
            "created_at": "2017-08-28 16:13:39",
            "updated_at": "2018-03-12 12:31:12"
            }
            }
            }
]